%YAML 1.1
%TAG !u! tag:unity3d.com,2011:
--- !u!78 &1
TagManager:
  serializedVersion: 2
  tags:
  - Blue
  - Red
  - Green
  - KillZone
  - Enemy
  - LevelExit
  - Cube
  - Wedge
  - Pickup
  - Boss
  - TitleScreen
  - ExitDoor
  - LevelExitPanPos
  layers:
  - Default
  - TransparentFX
  - Ignore Raycast
  - 
  - Water
  - UI
  - 
  - 
  - PostProcessing
  - InteractableCubes
  - DropShadowObjects
  - 
  - 
  - 
  - 
  - 
  - 
  - 
  - 
  - 
  - 
  - 
  - 
  - 
  - 
  - 
  - 
  - 
  - 
  - 
  - 
  - 
  m_SortingLayers:
  - name: Default
    uniqueID: 0
    locked: 0
